<svg xmlns:xlink="http://www.w3.org/1999/xlink" xmlns="http://www.w3.org/2000/svg" width="217" height="78" version="1.1"><rect id="backgroundrect" width="100%" height="100%" x="0" y="0" fill="none" stroke="none"/>
  <desc>Created with Lunacy</desc>
  <defs>
    <path d="M209.194 15.8356C213.483 15.8356 217 12.2858 217 7.90255C217 3.5498 213.483 0 209.194 0C204.874 0 201.326 3.5498 201.326 7.90255C201.326 12.2858 204.874 15.8356 209.194 15.8356ZM34.5535 42.8086C35.498 42.2993 36.584 42.1885 37.6118 42.4968C38.6392 42.8051 39.4854 43.4954 39.9941 44.4404C41.0442 46.3912 40.3126 48.8325 38.3631 49.8835C36.2392 51.0279 33.9584 51.8722 31.5835 52.3919C29.74 52.7951 27.8576 53 25.9894 53C21.0464 53 16.2109 51.5716 12.0053 48.8691C6.13274 45.0955 2.08211 39.2511 0.598847 32.4116C-2.45446 18.3308 6.46981 4.37856 20.4922 1.30914C26.4881 -0.00312543 32.7748 0.857315 38.1945 3.73342C40.1506 4.77174 40.8981 7.20875 39.8602 9.16616C38.8224 11.1224 36.3869 11.871 34.4305 10.833C30.6899 8.84784 26.3496 8.25363 22.2092 9.1596C12.5058 11.2837 6.3329 20.9499 8.44866 30.7077C9.47645 35.447 12.281 39.4957 16.3459 42.1071C20.3834 44.7012 25.1849 45.5663 29.8669 44.5411C31.5102 44.1814 33.0872 43.5984 34.5535 42.8086ZM214.963 7.90255C214.963 4.53795 212.464 1.94467 209.194 1.94467C205.892 1.94467 203.393 4.53795 203.393 7.90255C203.393 11.298 205.892 13.8909 209.194 13.8909C212.464 13.8909 214.963 11.298 214.963 7.90255ZM212.649 10.835C212.649 10.5572 212.557 10.3102 212.31 10.0633L211.261 8.9208C211.971 8.4273 212.402 7.68647 212.402 6.76044C212.402 5.15531 211.107 4.04407 209.286 4.04407L207.219 4.04407C206.571 4.04407 206.077 4.53795 206.077 5.15531L206.077 10.8041C206.077 11.4215 206.571 11.9154 207.188 11.9154C207.775 11.9154 208.237 11.4523 208.237 10.8041L208.237 9.47681L208.885 9.47681L210.736 11.5141C210.952 11.761 211.261 11.9154 211.6 11.9154C212.187 11.9154 212.649 11.4523 212.649 10.835ZM209.286 7.62474L208.237 7.62474L208.237 5.92701L209.286 5.92701C209.811 5.92701 210.181 6.26617 210.181 6.79131C210.181 7.28519 209.811 7.62474 209.286 7.62474ZM144.481 12.5024C148.611 12.5024 152.513 14.1014 155.465 17.0053C158.415 19.9061 160.078 23.7738 160.148 27.8962L160.15 47.7068C160.15 49.9304 158.349 51.7393 156.135 51.7393C153.926 51.7393 152.196 49.9682 152.196 47.7068L152.196 28.1659C152.196 23.9328 148.735 20.4883 144.481 20.4883C140.225 20.4883 136.764 23.9328 136.764 28.1659L136.764 47.7068C136.764 49.9682 135.034 51.7393 132.825 51.7393C130.611 51.7393 128.81 49.9304 128.81 47.7068L128.81 28.1659C128.81 23.9328 125.383 20.4883 121.171 20.4883C116.916 20.4883 113.455 23.9328 113.455 28.1659L113.455 47.7068C113.455 49.9682 111.725 51.7393 109.516 51.7393C107.265 51.7393 105.501 49.9682 105.501 47.7068L105.501 28.1659C105.501 19.5291 112.53 12.5024 121.171 12.5024C125.65 12.5024 129.887 14.4197 132.825 17.7696C135.764 14.4197 140.001 12.5024 144.481 12.5024ZM95.6556 17.11C92.7037 14.2061 88.8027 12.6072 84.6715 12.6072C80.192 12.6072 75.9547 14.5241 73.0163 17.8744C70.0776 14.5245 65.841 12.6072 61.3619 12.6072C52.7211 12.6072 45.6909 19.6339 45.6909 28.2707L45.6909 47.8119C45.6909 50.073 47.4549 51.844 49.7072 51.844C51.9155 51.844 53.6456 50.073 53.6456 47.8119L53.6456 28.2707C53.6456 24.0375 57.1073 20.5931 61.3619 20.5931C65.5738 20.5931 69.0008 24.0375 69.0008 28.2707L69.0008 47.8119C69.0008 50.0352 70.8022 51.844 73.0163 51.844C75.225 51.844 76.9547 50.073 76.9547 47.8119L76.9547 28.2707C76.9547 24.0375 80.4161 20.5931 84.6715 20.5931C88.9258 20.5931 92.3871 24.0375 92.3871 28.2707L92.3871 47.8119C92.3871 50.073 94.1172 51.844 96.3255 51.844C98.54 51.844 100.341 50.0352 100.341 47.8119L100.338 28.001C100.269 23.8786 98.6055 20.0108 95.6556 17.11ZM184.123 12.7352C189.396 12.7352 194.258 14.7802 197.811 18.4928C201.329 22.1676 203.266 27.1454 203.266 32.5083L203.266 47.7069C203.266 50.0432 201.578 51.739 199.251 51.739C197.782 51.739 195.595 50.2716 195.403 48.0267C192.285 50.5583 188.691 51.739 184.123 51.739C178.783 51.739 173.827 49.7916 170.169 46.2568C166.474 42.687 164.439 37.8045 164.439 32.5083C164.439 27.1794 166.473 22.2019 170.166 18.4909C173.861 14.7794 178.817 12.7352 184.123 12.7352ZM192.154 40.581C194.24 38.4855 195.389 35.6186 195.389 32.5083C195.389 29.3617 194.239 26.3973 192.151 24.1609C190.033 21.8925 187.182 20.6435 184.123 20.6435C177.723 20.6435 172.316 26.077 172.316 32.5083C172.316 35.5839 173.559 38.4496 175.818 40.5776C178.044 42.675 180.993 43.8303 184.123 43.8303C187.216 43.8303 190.068 42.6766 192.154 40.581ZM37.4423 27.5396C37.4354 25.8901 36.1014 24.5612 34.4531 24.5612C34.0408 24.5612 33.6482 24.6446 33.2907 24.7954C32.9378 24.9447 32.6192 25.16 32.3504 25.4255C32.1125 25.6335 31.8749 25.8407 31.6366 26.0487C30.3241 27.0364 28.3029 28.2599 25.8304 28.2599C23.3575 28.2599 21.3359 27.0364 20.0238 26.0487C19.7855 25.8407 19.5483 25.6335 19.3096 25.4255C19.0412 25.16 18.7226 24.9447 18.3693 24.7954C18.0122 24.6446 17.6196 24.5612 17.2077 24.5612C15.559 24.5612 14.225 25.8901 14.218 27.5396C14.2169 27.7881 14.2462 28.0292 14.3025 28.2599C14.4051 28.6844 14.5987 29.0729 14.8609 29.4048C18.6536 34.4748 24.4995 34.9826 25.8304 34.9826C27.1605 34.9826 33.0068 34.4748 36.7994 29.4048C37.0617 29.0729 37.2553 28.6844 37.3579 28.2599C37.4142 28.0292 37.4431 27.7881 37.4423 27.5396ZM38.2227 67.017C40.0863 67.017 41.1653 68.2763 41.1653 70.0776L41.1653 74.9554L39.9065 74.9554L39.9065 70.237C39.9065 69.0096 39.1545 68.1488 37.9284 68.1488C36.7023 68.1488 35.8359 69.0255 35.8359 70.237L35.8359 74.9554L34.5771 74.9554L34.5771 63L35.8359 63L35.8359 68.0691C36.3754 67.4155 37.1928 67.017 38.2227 67.017ZM68.123 74.9554L66.8642 74.9554L66.8642 63L68.123 63L68.123 74.9554ZM57.0228 72.8672C57.8565 74.254 59.2788 75.1307 60.9953 75.1307C62.9897 75.1307 64.4774 73.9671 64.4774 72.1977C64.4774 70.763 63.5292 69.9979 61.9598 69.2646L60.7664 68.7067C59.7856 68.2444 59.0336 67.8937 59.0336 66.9373C59.0336 65.9012 59.949 65.407 60.9463 65.407C61.9271 65.407 62.8263 65.8852 63.4148 66.7301L64.3466 66.0446C63.6764 65.0085 62.4339 64.2593 60.9626 64.2593C59.2134 64.2593 57.7094 65.3273 57.7094 67.0011C57.7094 68.5632 59.0172 69.2965 60.1452 69.8225L61.355 70.3804C62.4176 70.8746 63.1532 71.2572 63.1532 72.2295C63.1532 73.2976 62.2541 73.983 60.979 73.983C59.5894 73.983 58.6249 73.1541 57.9709 72.1817L57.0228 72.8672ZM103.859 69.695C103.859 72.7715 106.344 75.1307 109.467 75.1307C111.429 75.1307 113.08 74.2062 113.946 72.8672L112.998 72.1339C112.197 73.2816 110.987 73.983 109.483 73.983C107.047 73.983 105.184 72.1498 105.184 69.695C105.184 67.2402 107.047 65.407 109.483 65.407C110.987 65.407 112.197 66.1084 112.998 67.2561L113.946 66.5229C113.047 65.1838 111.429 64.2593 109.467 64.2593C106.344 64.2593 103.859 66.6185 103.859 69.695ZM24 64.4346L32.8769 64.4346L32.8769 65.5505L29.0679 65.5505L29.0679 74.9554L27.7927 74.9554L27.7927 65.5505L24 65.5505L24 64.4346ZM44.5657 71.4485L50.8596 71.4485C50.8923 71.2891 50.9577 70.9384 50.9577 70.5239C50.9577 68.4517 49.3719 67.017 47.3285 67.017C45.0397 67.017 43.2578 68.8183 43.2578 71.0818C43.2578 73.3613 45.0724 75.1307 47.4756 75.1307C48.7834 75.1307 49.8624 74.6047 50.6634 73.7758L49.9278 72.9469C49.2739 73.5845 48.4892 73.9989 47.4919 73.9989C45.9225 73.9989 44.7291 72.9947 44.5657 71.4485ZM71.6214 71.4485L77.9154 71.4485C77.9481 71.2891 78.0135 70.9384 78.0135 70.5239C78.0135 68.4517 76.4277 67.017 74.3842 67.017C72.0955 67.017 70.3136 68.8183 70.3136 71.0818C70.3136 73.3613 72.1282 75.1307 74.5314 75.1307C75.8392 75.1307 76.9182 74.6047 77.7192 73.7758L76.9835 72.9469C76.3296 73.5845 75.5449 73.9989 74.5477 73.9989C72.9783 73.9989 71.7849 72.9947 71.6214 71.4485ZM80.9561 71.4485L87.25 71.4485C87.2827 71.2891 87.3481 70.9384 87.3481 70.5239C87.3481 68.4517 85.7624 67.017 83.7189 67.017C81.4302 67.017 79.6483 68.8183 79.6483 71.0818C79.6483 73.3613 81.4629 75.1307 83.866 75.1307C85.1738 75.1307 86.2528 74.6047 87.0538 73.7758L86.3182 72.9469C85.6643 73.5845 84.8796 73.9989 83.8824 73.9989C82.313 73.9989 81.1196 72.9947 80.9561 71.4485ZM97.68 71.0659C97.68 68.7864 96.0289 67.017 93.7402 67.017C92.4977 67.017 91.3534 67.543 90.7321 68.4357L90.7321 67.1924L89.5551 67.1924L89.5551 77.8247L90.8139 77.8247L90.8139 73.8395C91.4678 74.6525 92.5794 75.1307 93.7402 75.1307C96.0125 75.1307 97.68 73.3613 97.68 71.0659ZM119.406 75.1148C117.085 75.1148 115.254 73.3135 115.254 71.0659C115.254 68.7864 117.085 67.017 119.423 67.017C121.744 67.017 123.591 68.8023 123.591 71.0659C123.591 73.3135 121.744 75.1148 119.406 75.1148ZM134.528 67.017C136.392 67.017 137.422 68.2763 137.422 70.0776L137.422 74.9554L136.163 74.9554L136.163 70.237C136.163 69.0096 135.476 68.1488 134.283 68.1488C133.073 68.1488 132.239 69.0415 132.239 70.1254L132.239 74.9554L130.981 74.9554L130.981 70.237C130.981 69.0096 130.261 68.1488 129.084 68.1488C127.875 68.1488 127.057 69.0096 127.057 70.237L127.057 74.9554L125.798 74.9554L125.798 67.1924L126.975 67.1924L126.975 68.0053C127.531 67.3836 128.349 67.017 129.346 67.017C130.539 67.017 131.357 67.543 131.798 68.356C132.354 67.5749 133.302 67.017 134.528 67.017ZM148.211 71.0659C148.211 68.7864 146.56 67.017 144.271 67.017C143.029 67.017 141.885 67.543 141.263 68.4357L141.263 67.1924L140.086 67.1924L140.086 77.8247L141.345 77.8247L141.345 73.8395C141.999 74.6525 143.111 75.1307 144.271 75.1307C146.544 75.1307 148.211 73.3613 148.211 71.0659ZM156.729 73.8236L156.729 74.9554L157.987 74.9554L157.987 67.1924L156.794 67.1924L156.794 68.4357C156.173 67.543 155.028 67.017 153.786 67.017C151.514 67.017 149.846 68.7864 149.846 71.0659C149.846 73.3613 151.53 75.1307 153.786 75.1307C154.963 75.1307 156.091 74.6525 156.729 73.8236ZM167.338 70.0776C167.338 68.2763 166.259 67.017 164.379 67.017C163.35 67.017 162.499 67.3996 161.927 68.0213L161.927 67.1924L160.75 67.1924L160.75 74.9554L162.009 74.9554L162.009 70.221C162.009 69.0096 162.875 68.1488 164.102 68.1488C165.328 68.1488 166.08 68.9936 166.08 70.221L166.08 74.9554L167.338 74.9554L167.338 70.0776ZM173.077 76.0393C172.455 77.4261 171.589 78 170.379 78C169.987 78 169.529 77.9362 169.153 77.8406L169.153 76.8045C169.529 76.8523 169.84 76.8842 170.118 76.8842C170.886 76.8842 171.474 76.6291 171.916 75.6408L172.341 74.7163L169.039 67.1924L170.395 67.1924L173.027 73.3773L175.659 67.1924L177 67.1924L173.077 76.0393ZM47.2958 68.1328C45.9552 68.1328 44.8926 69.0255 44.6147 70.3645L49.6662 70.3645C49.6499 68.9299 48.5546 68.1328 47.2958 68.1328ZM74.3515 68.1328C73.011 68.1328 71.9484 69.0255 71.6705 70.3645L76.722 70.3645C76.7056 68.9299 75.6103 68.1328 74.3515 68.1328ZM83.6862 68.1328C82.3457 68.1328 81.283 69.0255 81.0051 70.3645L86.0566 70.3645C86.0403 68.9299 84.945 68.1328 83.6862 68.1328ZM93.5603 73.9989C95.1788 73.9989 96.3885 72.7715 96.3885 71.0818C96.3885 69.3921 95.1951 68.1488 93.5603 68.1488C92.1871 68.1488 90.7975 69.0255 90.7975 71.0659C90.7975 73.1063 92.1707 73.9989 93.5603 73.9989ZM122.3 71.0818C122.3 72.7237 121.041 73.983 119.406 73.983C117.772 73.983 116.545 72.7396 116.545 71.0818C116.545 69.4081 117.772 68.1488 119.423 68.1488C121.057 68.1488 122.3 69.4081 122.3 71.0818ZM144.092 73.9989C145.71 73.9989 146.92 72.7715 146.92 71.0818C146.92 69.3921 145.726 68.1488 144.092 68.1488C142.718 68.1488 141.329 69.0255 141.329 71.0659C141.329 73.1063 142.702 73.9989 144.092 73.9989ZM153.966 73.9989C155.339 73.9989 156.745 73.1063 156.745 71.0659C156.745 69.0255 155.339 68.1488 153.966 68.1488C152.331 68.1488 151.138 69.4081 151.138 71.0818C151.138 72.7715 152.347 73.9989 153.966 73.9989Z" id="path_1"/>
    <clipPath id="mask_1">
      <use xlink:href="#path_1" id="svg_1"/>
    </clipPath>
  </defs>

<g class="currentLayer" style=""><title>Layer 1</title><g id="logo/full">
    <path d="M209.194 15.8356C213.483 15.8356 217 12.2858 217 7.90255C217 3.5498 213.483 0 209.194 0C204.874 0 201.326 3.5498 201.326 7.90255C201.326 12.2858 204.874 15.8356 209.194 15.8356ZM34.5535 42.8086C35.498 42.2993 36.584 42.1885 37.6118 42.4968C38.6392 42.8051 39.4854 43.4954 39.9941 44.4404C41.0442 46.3912 40.3126 48.8325 38.3631 49.8835C36.2392 51.0279 33.9584 51.8722 31.5835 52.3919C29.74 52.7951 27.8576 53 25.9894 53C21.0464 53 16.2109 51.5716 12.0053 48.8691C6.13274 45.0955 2.08211 39.2511 0.598847 32.4116C-2.45446 18.3308 6.46981 4.37856 20.4922 1.30914C26.4881 -0.00312543 32.7748 0.857315 38.1945 3.73342C40.1506 4.77174 40.8981 7.20875 39.8602 9.16616C38.8224 11.1224 36.3869 11.871 34.4305 10.833C30.6899 8.84784 26.3496 8.25363 22.2092 9.1596C12.5058 11.2837 6.3329 20.9499 8.44866 30.7077C9.47645 35.447 12.281 39.4957 16.3459 42.1071C20.3834 44.7012 25.1849 45.5663 29.8669 44.5411C31.5102 44.1814 33.0872 43.5984 34.5535 42.8086ZM214.963 7.90255C214.963 4.53795 212.464 1.94467 209.194 1.94467C205.892 1.94467 203.393 4.53795 203.393 7.90255C203.393 11.298 205.892 13.8909 209.194 13.8909C212.464 13.8909 214.963 11.298 214.963 7.90255ZM212.649 10.835C212.649 10.5572 212.557 10.3102 212.31 10.0633L211.261 8.9208C211.971 8.4273 212.402 7.68647 212.402 6.76044C212.402 5.15531 211.107 4.04407 209.286 4.04407L207.219 4.04407C206.571 4.04407 206.077 4.53795 206.077 5.15531L206.077 10.8041C206.077 11.4215 206.571 11.9154 207.188 11.9154C207.775 11.9154 208.237 11.4523 208.237 10.8041L208.237 9.47681L208.885 9.47681L210.736 11.5141C210.952 11.761 211.261 11.9154 211.6 11.9154C212.187 11.9154 212.649 11.4523 212.649 10.835ZM209.286 7.62474L208.237 7.62474L208.237 5.92701L209.286 5.92701C209.811 5.92701 210.181 6.26617 210.181 6.79131C210.181 7.28519 209.811 7.62474 209.286 7.62474ZM144.481 12.5024C148.611 12.5024 152.513 14.1014 155.465 17.0053C158.415 19.9061 160.078 23.7738 160.148 27.8962L160.15 47.7068C160.15 49.9304 158.349 51.7393 156.135 51.7393C153.926 51.7393 152.196 49.9682 152.196 47.7068L152.196 28.1659C152.196 23.9328 148.735 20.4883 144.481 20.4883C140.225 20.4883 136.764 23.9328 136.764 28.1659L136.764 47.7068C136.764 49.9682 135.034 51.7393 132.825 51.7393C130.611 51.7393 128.81 49.9304 128.81 47.7068L128.81 28.1659C128.81 23.9328 125.383 20.4883 121.171 20.4883C116.916 20.4883 113.455 23.9328 113.455 28.1659L113.455 47.7068C113.455 49.9682 111.725 51.7393 109.516 51.7393C107.265 51.7393 105.501 49.9682 105.501 47.7068L105.501 28.1659C105.501 19.5291 112.53 12.5024 121.171 12.5024C125.65 12.5024 129.887 14.4197 132.825 17.7696C135.764 14.4197 140.001 12.5024 144.481 12.5024ZM95.6556 17.11C92.7037 14.2061 88.8027 12.6072 84.6715 12.6072C80.192 12.6072 75.9547 14.5241 73.0163 17.8744C70.0776 14.5245 65.841 12.6072 61.3619 12.6072C52.7211 12.6072 45.6909 19.6339 45.6909 28.2707L45.6909 47.8119C45.6909 50.073 47.4549 51.844 49.7072 51.844C51.9155 51.844 53.6456 50.073 53.6456 47.8119L53.6456 28.2707C53.6456 24.0375 57.1073 20.5931 61.3619 20.5931C65.5738 20.5931 69.0008 24.0375 69.0008 28.2707L69.0008 47.8119C69.0008 50.0352 70.8022 51.844 73.0163 51.844C75.225 51.844 76.9547 50.073 76.9547 47.8119L76.9547 28.2707C76.9547 24.0375 80.4161 20.5931 84.6715 20.5931C88.9258 20.5931 92.3871 24.0375 92.3871 28.2707L92.3871 47.8119C92.3871 50.073 94.1172 51.844 96.3255 51.844C98.54 51.844 100.341 50.0352 100.341 47.8119L100.338 28.001C100.269 23.8786 98.6055 20.0108 95.6556 17.11ZM184.123 12.7352C189.396 12.7352 194.258 14.7802 197.811 18.4928C201.329 22.1676 203.266 27.1454 203.266 32.5083L203.266 47.7069C203.266 50.0432 201.578 51.739 199.251 51.739C197.782 51.739 195.595 50.2716 195.403 48.0267C192.285 50.5583 188.691 51.739 184.123 51.739C178.783 51.739 173.827 49.7916 170.169 46.2568C166.474 42.687 164.439 37.8045 164.439 32.5083C164.439 27.1794 166.473 22.2019 170.166 18.4909C173.861 14.7794 178.817 12.7352 184.123 12.7352ZM192.154 40.581C194.24 38.4855 195.389 35.6186 195.389 32.5083C195.389 29.3617 194.239 26.3973 192.151 24.1609C190.033 21.8925 187.182 20.6435 184.123 20.6435C177.723 20.6435 172.316 26.077 172.316 32.5083C172.316 35.5839 173.559 38.4496 175.818 40.5776C178.044 42.675 180.993 43.8303 184.123 43.8303C187.216 43.8303 190.068 42.6766 192.154 40.581ZM37.4423 27.5396C37.4354 25.8901 36.1014 24.5612 34.4531 24.5612C34.0408 24.5612 33.6482 24.6446 33.2907 24.7954C32.9378 24.9447 32.6192 25.16 32.3504 25.4255C32.1125 25.6335 31.8749 25.8407 31.6366 26.0487C30.3241 27.0364 28.3029 28.2599 25.8304 28.2599C23.3575 28.2599 21.3359 27.0364 20.0238 26.0487C19.7855 25.8407 19.5483 25.6335 19.3096 25.4255C19.0412 25.16 18.7226 24.9447 18.3693 24.7954C18.0122 24.6446 17.6196 24.5612 17.2077 24.5612C15.559 24.5612 14.225 25.8901 14.218 27.5396C14.2169 27.7881 14.2462 28.0292 14.3025 28.2599C14.4051 28.6844 14.5987 29.0729 14.8609 29.4048C18.6536 34.4748 24.4995 34.9826 25.8304 34.9826C27.1605 34.9826 33.0068 34.4748 36.7994 29.4048C37.0617 29.0729 37.2553 28.6844 37.3579 28.2599C37.4142 28.0292 37.4431 27.7881 37.4423 27.5396ZM38.2227 67.017C40.0863 67.017 41.1653 68.2763 41.1653 70.0776L41.1653 74.9554L39.9065 74.9554L39.9065 70.237C39.9065 69.0096 39.1545 68.1488 37.9284 68.1488C36.7023 68.1488 35.8359 69.0255 35.8359 70.237L35.8359 74.9554L34.5771 74.9554L34.5771 63L35.8359 63L35.8359 68.0691C36.3754 67.4155 37.1928 67.017 38.2227 67.017ZM68.123 74.9554L66.8642 74.9554L66.8642 63L68.123 63L68.123 74.9554ZM57.0228 72.8672C57.8565 74.254 59.2788 75.1307 60.9953 75.1307C62.9897 75.1307 64.4774 73.9671 64.4774 72.1977C64.4774 70.763 63.5292 69.9979 61.9598 69.2646L60.7664 68.7067C59.7856 68.2444 59.0336 67.8937 59.0336 66.9373C59.0336 65.9012 59.949 65.407 60.9463 65.407C61.9271 65.407 62.8263 65.8852 63.4148 66.7301L64.3466 66.0446C63.6764 65.0085 62.4339 64.2593 60.9626 64.2593C59.2134 64.2593 57.7094 65.3273 57.7094 67.0011C57.7094 68.5632 59.0172 69.2965 60.1452 69.8225L61.355 70.3804C62.4176 70.8746 63.1532 71.2572 63.1532 72.2295C63.1532 73.2976 62.2541 73.983 60.979 73.983C59.5894 73.983 58.6249 73.1541 57.9709 72.1817L57.0228 72.8672ZM103.859 69.695C103.859 72.7715 106.344 75.1307 109.467 75.1307C111.429 75.1307 113.08 74.2062 113.946 72.8672L112.998 72.1339C112.197 73.2816 110.987 73.983 109.483 73.983C107.047 73.983 105.184 72.1498 105.184 69.695C105.184 67.2402 107.047 65.407 109.483 65.407C110.987 65.407 112.197 66.1084 112.998 67.2561L113.946 66.5229C113.047 65.1838 111.429 64.2593 109.467 64.2593C106.344 64.2593 103.859 66.6185 103.859 69.695ZM24 64.4346L32.8769 64.4346L32.8769 65.5505L29.0679 65.5505L29.0679 74.9554L27.7927 74.9554L27.7927 65.5505L24 65.5505L24 64.4346ZM44.5657 71.4485L50.8596 71.4485C50.8923 71.2891 50.9577 70.9384 50.9577 70.5239C50.9577 68.4517 49.3719 67.017 47.3285 67.017C45.0397 67.017 43.2578 68.8183 43.2578 71.0818C43.2578 73.3613 45.0724 75.1307 47.4756 75.1307C48.7834 75.1307 49.8624 74.6047 50.6634 73.7758L49.9278 72.9469C49.2739 73.5845 48.4892 73.9989 47.4919 73.9989C45.9225 73.9989 44.7291 72.9947 44.5657 71.4485ZM71.6214 71.4485L77.9154 71.4485C77.9481 71.2891 78.0135 70.9384 78.0135 70.5239C78.0135 68.4517 76.4277 67.017 74.3842 67.017C72.0955 67.017 70.3136 68.8183 70.3136 71.0818C70.3136 73.3613 72.1282 75.1307 74.5314 75.1307C75.8392 75.1307 76.9182 74.6047 77.7192 73.7758L76.9835 72.9469C76.3296 73.5845 75.5449 73.9989 74.5477 73.9989C72.9783 73.9989 71.7849 72.9947 71.6214 71.4485ZM80.9561 71.4485L87.25 71.4485C87.2827 71.2891 87.3481 70.9384 87.3481 70.5239C87.3481 68.4517 85.7624 67.017 83.7189 67.017C81.4302 67.017 79.6483 68.8183 79.6483 71.0818C79.6483 73.3613 81.4629 75.1307 83.866 75.1307C85.1738 75.1307 86.2528 74.6047 87.0538 73.7758L86.3182 72.9469C85.6643 73.5845 84.8796 73.9989 83.8824 73.9989C82.313 73.9989 81.1196 72.9947 80.9561 71.4485ZM97.68 71.0659C97.68 68.7864 96.0289 67.017 93.7402 67.017C92.4977 67.017 91.3534 67.543 90.7321 68.4357L90.7321 67.1924L89.5551 67.1924L89.5551 77.8247L90.8139 77.8247L90.8139 73.8395C91.4678 74.6525 92.5794 75.1307 93.7402 75.1307C96.0125 75.1307 97.68 73.3613 97.68 71.0659ZM119.406 75.1148C117.085 75.1148 115.254 73.3135 115.254 71.0659C115.254 68.7864 117.085 67.017 119.423 67.017C121.744 67.017 123.591 68.8023 123.591 71.0659C123.591 73.3135 121.744 75.1148 119.406 75.1148ZM134.528 67.017C136.392 67.017 137.422 68.2763 137.422 70.0776L137.422 74.9554L136.163 74.9554L136.163 70.237C136.163 69.0096 135.476 68.1488 134.283 68.1488C133.073 68.1488 132.239 69.0415 132.239 70.1254L132.239 74.9554L130.981 74.9554L130.981 70.237C130.981 69.0096 130.261 68.1488 129.084 68.1488C127.875 68.1488 127.057 69.0096 127.057 70.237L127.057 74.9554L125.798 74.9554L125.798 67.1924L126.975 67.1924L126.975 68.0053C127.531 67.3836 128.349 67.017 129.346 67.017C130.539 67.017 131.357 67.543 131.798 68.356C132.354 67.5749 133.302 67.017 134.528 67.017ZM148.211 71.0659C148.211 68.7864 146.56 67.017 144.271 67.017C143.029 67.017 141.885 67.543 141.263 68.4357L141.263 67.1924L140.086 67.1924L140.086 77.8247L141.345 77.8247L141.345 73.8395C141.999 74.6525 143.111 75.1307 144.271 75.1307C146.544 75.1307 148.211 73.3613 148.211 71.0659ZM156.729 73.8236L156.729 74.9554L157.987 74.9554L157.987 67.1924L156.794 67.1924L156.794 68.4357C156.173 67.543 155.028 67.017 153.786 67.017C151.514 67.017 149.846 68.7864 149.846 71.0659C149.846 73.3613 151.53 75.1307 153.786 75.1307C154.963 75.1307 156.091 74.6525 156.729 73.8236ZM167.338 70.0776C167.338 68.2763 166.259 67.017 164.379 67.017C163.35 67.017 162.499 67.3996 161.927 68.0213L161.927 67.1924L160.75 67.1924L160.75 74.9554L162.009 74.9554L162.009 70.221C162.009 69.0096 162.875 68.1488 164.102 68.1488C165.328 68.1488 166.08 68.9936 166.08 70.221L166.08 74.9554L167.338 74.9554L167.338 70.0776ZM173.077 76.0393C172.455 77.4261 171.589 78 170.379 78C169.987 78 169.529 77.9362 169.153 77.8406L169.153 76.8045C169.529 76.8523 169.84 76.8842 170.118 76.8842C170.886 76.8842 171.474 76.6291 171.916 75.6408L172.341 74.7163L169.039 67.1924L170.395 67.1924L173.027 73.3773L175.659 67.1924L177 67.1924L173.077 76.0393ZM47.2958 68.1328C45.9552 68.1328 44.8926 69.0255 44.6147 70.3645L49.6662 70.3645C49.6499 68.9299 48.5546 68.1328 47.2958 68.1328ZM74.3515 68.1328C73.011 68.1328 71.9484 69.0255 71.6705 70.3645L76.722 70.3645C76.7056 68.9299 75.6103 68.1328 74.3515 68.1328ZM83.6862 68.1328C82.3457 68.1328 81.283 69.0255 81.0051 70.3645L86.0566 70.3645C86.0403 68.9299 84.945 68.1328 83.6862 68.1328ZM93.5603 73.9989C95.1788 73.9989 96.3885 72.7715 96.3885 71.0818C96.3885 69.3921 95.1951 68.1488 93.5603 68.1488C92.1871 68.1488 90.7975 69.0255 90.7975 71.0659C90.7975 73.1063 92.1707 73.9989 93.5603 73.9989ZM122.3 71.0818C122.3 72.7237 121.041 73.983 119.406 73.983C117.772 73.983 116.545 72.7396 116.545 71.0818C116.545 69.4081 117.772 68.1488 119.423 68.1488C121.057 68.1488 122.3 69.4081 122.3 71.0818ZM144.092 73.9989C145.71 73.9989 146.92 72.7715 146.92 71.0818C146.92 69.3921 145.726 68.1488 144.092 68.1488C142.718 68.1488 141.329 69.0255 141.329 71.0659C141.329 73.1063 142.702 73.9989 144.092 73.9989ZM153.966 73.9989C155.339 73.9989 156.745 73.1063 156.745 71.0659C156.745 69.0255 155.339 68.1488 153.966 68.1488C152.331 68.1488 151.138 69.4081 151.138 71.0818C151.138 72.7715 152.347 73.9989 153.966 73.9989Z" id="TheSleepCompany" fill="#1D2748" fill-rule="evenodd" stroke="none"/>
    <g clip-path="url(#mask_1)" id="svg_2">
      <g id="color/emma_blue">
        <path d="" id="Rectangle" fill="#F4F4F7" stroke="none"/>
      </g>
    </g>
  </g></g></svg>
